Place,Name,State,WeightClassKg,BodyweightKg,BirthDate,Age,Squat1Kg,Squat2Kg,Squat3Kg,Best3SquatKg,Bench1Kg,Bench2Kg,Bench3Kg,Best3BenchKg,Deadlift1Kg,Deadlift2Kg,Deadlift3Kg,Best3DeadliftKg,TotalKg,Bench4Kg,Deadlift4Kg,Event,Equipment,Sex,Division,Tested
1,Katie Kuhlman,KS,60,59.6,,18,87.5,97.5,-102.5,97.5,55,-57.5,-57.5,55,102.5,112.5,120,120,272.5,,,SBD,Raw,F,Juniors 18-19,Yes
1,Jenna Demmel,KS,67.5,67.2,,19,120,125,130,130,55,57.5,60,60,125,130,135,135,325,,,SBD,Raw,F,Juniors 18-19,Yes
1,Seraphina Moon,KS,67.5,63.4,,22,100,-105,105,105,50,52.5,-55,52.5,110,117.5,120,120,277.5,,,SBD,Raw,F,Juniors 20-23,Yes
1,Raygen Miller,KS,75,73,,19,112.5,115,120,120,75,80,-82.5,80,147.5,152.5,-157.5,152.5,352.5,,,SBD,Raw,F,Juniors 18-19,Yes
1,Kaitlyn Busch,KS,75,74.4,,23,115,122.5,-142.5,122.5,65,70,-75,70,145,160,170,170,362.5,,,SBD,Raw,F,Juniors 20-23,Yes
1,Abby Rounbehler,KS,82.5,79.6,,19,92.5,97.5,102.5,102.5,-52.5,55,-60,55,105,112.5,117.5,117.5,275,,,SBD,Raw,F,Juniors 18-19,Yes
1,Jenna Demmel,KS,67.5,67.2,,19,120,125,130,130,55,57.5,60,60,125,130,135,135,325,,,SBD,Raw,F,Open,Yes
1,Raygen Miller,KS,75,73,,19,112.5,115,120,120,75,80,-82.5,80,147.5,152.5,-157.5,152.5,352.5,,,SBD,Raw,F,Open,Yes
1,Jannae Green,KS,82.5,81.8,,30,100,107.5,110,110,52.5,57.5,60,60,120,130,-135,130,300,,,SBD,Raw,F,Open,Yes
2,Abby Rounbehler,KS,82.5,79.6,,19,92.5,97.5,102.5,102.5,-52.5,55,-60,55,105,112.5,117.5,117.5,275,,,SBD,Raw,F,Open,Yes
1,Hope Hamer,MO,67.5,67,,50,75,82.5,-87.5,82.5,47.5,52.5,-55,52.5,120,125,130,130,265,,,SBD,Raw,F,Masters 50-54,Yes
1,Sandy Costello,MO,82.5,80.8,,45,-110,110,-115,110,52.5,57.5,-62.5,57.5,127.5,137.5,-142.5,137.5,305,,,SBD,Raw,F,Masters 45-49,Yes
1,Peggy Ochoa,KS,82.5,78.6,,62,85,92.5,97.5,97.5,52.5,57.5,60,60,130,140,142.5,142.5,300,,,SBD,Raw,F,Masters 60-64,Yes
1,Michelle Cabrera,KS,90,83.6,,46,85,92.5,102.5,102.5,42.5,47.5,50,50,130,140,150,150,302.5,,,SBD,Raw,F,Masters 45-49,Yes
1,Susan Haralson,MO,90,89.2,,62,65,-70,70,70,45,47.5,-50,47.5,85,90,95,95,212.5,,,SBD,Raw,F,Masters 60-64,Yes
1,Ahmet Korkmaz,MO,67.5,65.25,,17,155,165,-172.5,165,77.5,85,-92.5,85,-227.5,227.5,242.5,242.5,492.5,,,SBD,Raw,M,Juniors 16-17,Yes
1,Eric Valdez,MO,75,73.8,,15,200,212.5,-222.5,212.5,-117.5,117.5,130,130,237.5,-250,-250,237.5,580,,,SBD,Raw,M,Juniors 13-15,Yes
2,Evan Valdez,MO,75,75,,15,150,-165,,150,-77.5,87.5,92.5,92.5,-180,180,197.5,197.5,440,,,SBD,Raw,M,Juniors 13-15,Yes
1,LA Thompson,,75,70.75,,23,110,120,-132.5,120,-85,95,-102.5,95,137.5,150,160,160,375,,,SBD,Raw,M,Juniors 20-23,Yes
1,Hayden McCarthy,,82.5,79.1,,16,160,170,180,180,100,110,-120,110,200,210,220,220,510,,,SBD,Raw,M,Juniors 16-17,Yes
DQ,Caden Mccully,MO,82.5,81.1,,17,170,185,-195,185,-105,-117.5,-117.5,,192.5,205,-215,205,,,,SBD,Raw,M,Juniors 16-17,Yes
1,Decker Starr,MO,82.5,81.5,,21,227.5,235,-240,235,130,137.5,142.5,142.5,245,260,-272.5,260,637.5,,,SBD,Raw,M,Juniors 20-23,Yes
2,Joshua Denman,MO,82.5,81.8,,20,170,180,185,185,110,-117.5,-117.5,110,247.5,262.5,-272.5,262.5,557.5,,,SBD,Raw,M,Juniors 20-23,Yes
3,Hasan Alkhalifah,OK,82.5,78.2,,22,160,170,-175,170,110,120,122.5,122.5,205,225,235,235,527.5,,,SBD,Raw,M,Juniors 20-23,Yes
1,Luke Gall,MO,90,87.7,,15,190,202.5,210,210,95,105,-115,105,-227.5,-227.5,227.5,227.5,542.5,,247.5,SBD,Raw,M,Juniors 13-15,Yes
1,Alpha Jalloh,MO,90,88.8,,18,187.5,190,,190,142.5,147.5,-157.5,147.5,237.5,252.5,-260,252.5,590,,,SBD,Raw,M,Juniors 18-19,Yes
2,Alex Tran,KS,90,85.65,,18,187.5,200,-210,200,97.5,105,-115,105,210,-227.5,227.5,227.5,532.5,,,SBD,Raw,M,Juniors 18-19,Yes
1,Damani Stewart-Johnson,KS,90,84.7,,21,220,230,237.5,237.5,-120,130,-137.5,130,-237.5,-237.5,237.5,237.5,605,,,SBD,Raw,M,Juniors 20-23,Yes
1,Christopher Clark,MO,100,95.2,,20,205,220,232.5,232.5,137.5,147.5,155,155,227.5,245,-252.5,245,632.5,,,SBD,Raw,M,Juniors 20-23,Yes
1,Caleb Womack,KS,110,107,,22,227.5,235,-237.5,235,117.5,122.5,-130,122.5,230,235,242.5,242.5,600,,,SBD,Raw,M,Juniors 20-23,Yes
1,Augustine Obour,KS,125,121.35,,22,-227.5,240,-250,240,155,167.5,-180,167.5,287.5,310,320,320,727.5,,,SBD,Raw,M,Juniors 20-23,Yes
1,Kody Melugin,KS,75,71.75,,25,145,152.5,162.5,162.5,115,-120,-122.5,115,177.5,187.5,197.5,197.5,475,,,SBD,Raw,M,Open,Yes
1,Ron Garofalo,CO,82.5,82.15,,62,217.5,232.5,237.5,237.5,130,132.5,135,135,255,272.5,282.5,282.5,655,,,SBD,Raw,M,Open,Yes
2,Mitch Jeffrey,KS,82.5,80.8,,30,175,185,192.5,192.5,107.5,112.5,-125,112.5,175,202.5,227.5,227.5,532.5,,,SBD,Raw,M,Open,Yes
1,Rodrigo Espana,KS,90,87.6,,27,185,190,195,195,142.5,147.5,-150,147.5,222.5,-227.5,230,230,572.5,,,SBD,Raw,M,Open,Yes
1,Kristopher Green,KS,100,99.1,,33,195,202.5,210,210,145,155,157.5,157.5,217.5,230,232.5,232.5,600,,,SBD,Raw,M,Open,Yes
2,Lane Moran,KS,100,95.7,,25,180,-185,185,185,135,-142.5,-142.5,135,205,220,227.5,227.5,547.5,,,SBD,Raw,M,Open,Yes
3,Ryan Calore,CO,100,99.25,,24,197.5,205,210,210,132.5,-142.5,-142.5,132.5,197.5,-205,205,205,547.5,,,SBD,Raw,M,Open,Yes
1,James Kinnard,MO,110,102.25,,35,227.5,-235,235,235,172.5,177.5,182.5,182.5,275,287.5,-302.5,287.5,705,,,SBD,Raw,M,Open,Yes
2,John Massey,MO,110,105.9,,27,210,220,225,225,135,142.5,145,145,200,220,230,230,600,,,SBD,Raw,M,Open,Yes
1,Augustine Obour,KS,125,121.35,,22,-227.5,240,-250,240,155,167.5,-180,167.5,287.5,310,320,320,727.5,,,SBD,Raw,M,Open,Yes
2,Matthew Sundling,SD,125,122.9,,24,192.5,197.5,202.5,202.5,115,117.5,-122.5,117.5,230,237.5,242.5,242.5,562.5,,,SBD,Raw,M,Open,Yes
1,Ethan Reece,TX,140,134.7,,27,260,270,280,280,205,-212.5,-212.5,205,297.5,307.5,,307.5,792.5,,,SBD,Raw,M,Open,Yes
1,Nicholas Moss,KS,140+,175.4,,35,265,272.5,280,280,185,190,197.5,197.5,-235,242.5,250,250,727.5,,,SBD,Raw,M,Open,Yes
2,Marcus Tapia,KS,140+,154.4,,32,210,-217.5,-217.5,210,210,222.5,-230,222.5,285,287.5,-295,287.5,720,,,SBD,Raw,M,Open,Yes
1,James Kinnard,MO,110,102.25,,35,227.5,-235,235,235,172.5,177.5,182.5,182.5,275,287.5,-302.5,287.5,705,,,SBD,Raw,M,Submasters 35-39,Yes
1,Monte Lofing,NE,67.5,66.8,,65,162.5,172.5,182.5,182.5,92.5,100,102.5,102.5,172.5,185,190,190,475,103,192.5,SBD,Raw,M,Masters 65-69,Yes
DQ,Kevin Dunn,KS,82.5,81.5,,40,-110,117.5,132.5,132.5,-132.5,-132.5,-132.5,,132.5,147.5,160,160,,,,SBD,Raw,M,Masters 40-44,Yes
1,Ron Garofalo,CO,82.5,82.15,,62,217.5,232.5,237.5,237.5,130,132.5,135,135,255,272.5,282.5,282.5,655,,,SBD,Raw,M,Masters 60-64,Yes
DQ,Ryan Dunn,KS,100,93.35,,41,-125,-142.5,142.5,142.5,-82.5,-82.5,-82.5,,190,202.5,-210,202.5,,,,SBD,Raw,M,Masters 40-44,Yes
1,Andrew Waynick,KS,110,107.5,,44,-187.5,-187.5,187.5,187.5,137.5,145,-150,145,195,220,-247.5,220,552.5,,,SBD,Raw,M,Masters 40-44,Yes
1,Randy Moore,KS,140,133.65,,55,155,160,165,165,110,117.5,122.5,122.5,200,215,220,220,507.5,,,SBD,Raw,M,Masters 55-59,Yes
1,Levi Parker,KS,82.5,80.4,,30,-227.5,240,,240,112.5,122.5,127.5,127.5,227.5,245,257.5,257.5,625,,,SBD,Wraps,M,Open,Yes
2,Baylor Parker,KS,82.5,80.5,,33,-190,190,195,195,127.5,-137.5,,127.5,207.5,220,227.5,227.5,550,,,SBD,Wraps,M,Open,Yes
1,Marc Finley,KS,110,108.3,,49,-185,185,195,195,130,135,137.5,137.5,185,195,200,200,532.5,,,SBD,Wraps,M,Masters 45-49,Yes
1,Richard Jimerson,MO,125,111.2,,58,177.5,185,192.5,192.5,142.5,-147.5,147.5,147.5,155,162.5,175,175,515,,,SBD,Wraps,M,Masters 55-59,Yes
1,Greg Jirak,KS,140,137.5,,58,-142.5,142.5,-152.5,142.5,-140,140,-143,140,142.5,150,157.5,157.5,440,,,SBD,Wraps,M,Masters 55-59,Yes
1,Michelle Cabrera,KS,90,83.6,,46,,,,,42.5,47.5,50,50,,,,,50,,,B,Raw,F,Masters 45-49,Yes
1,James Kinnard,MO,110,102.25,,35,,,,,172.5,177.5,182.5,182.5,,,,,182.5,,,B,Raw,M,Open,Yes
1,James Kinnard,MO,110,102.25,,35,,,,,172.5,177.5,182.5,182.5,,,,,182.5,,,B,Raw,M,Submasters 35-39,Yes
1,Michelle Cabrera,KS,90,83.6,,46,,,,,,,,,130,140,150,150,150,,,D,Raw,F,Masters 45-49,Yes
1,James Kinnard,MO,110,102.25,,35,,,,,,,,,275,287.5,-302.5,287.5,287.5,,,D,Raw,M,Open,Yes
1,James Kinnard,MO,110,102.25,,35,,,,,,,,,275,287.5,-302.5,287.5,287.5,,,D,Raw,M,Submasters 35-39,Yes
1,Marcus Tapia,KS,140+,154.4,,32,,,,,210,222.5,-230,222.5,285,287.5,-295,287.5,510,,,BD,Raw,M,Open,Yes
